// Jest Snapshot v1, https://goo.gl/fbAQLP

exports[`Should render an H2 tag 1`] = `
.c0 {
  font-size: 20px;
  color: #314756;
  margin-bottom: 12px;
  font-weight: 400;
  line-height: 20px;
  text-align: left;
  color: #314756;
}

<h2
  className="c0"
  color="default"
  fontWeight="default"
>
  Hello!
</h2>
`;
