<svg width="248" height="401" viewBox="0 0 248 401" fill="none" xmlns="http://www.w3.org/2000/svg">
<path opacity="0.8" fill-rule="evenodd" clip-rule="evenodd" d="M146 326.994L145.97 380.844C145.97 383.385 145.607 384.717 144.521 386C127.669 386 0.585034 319.695 0 193.438C0.585034 66.3048 127.669 0 144.521 0C145.607 1.28344 145.97 2.61468 145.97 5.15623L146 58.9883C113.851 58.9883 45.7129 110.857 45.3507 193C45.7129 275.141 113.851 326.994 146 326.994Z" transform="translate(101.771 393.615) scale(1 -1)" fill="url(#paint0_linear)" fill-opacity="0.9"/>
<path fill-rule="evenodd" clip-rule="evenodd" d="M201.28 58.4C122.576 58.4 58.7736 121.796 58.7736 200C58.7736 278.204 122.576 341.6 201.28 341.6C217.569 341.6 233.419 338.998 248 333.996L247.976 389.425C247.976 392.301 246.001 395.011 243.278 395.64C229.732 398.497 215.682 400 201.28 400C90.116 400 0 310.457 0 200C0 89.5431 90.116 0 201.28 0C215.695 0 229.756 1.50569 243.312 4.36742C246.097 5.01184 247.976 7.62746 247.976 10.5708L248 65.9906C233.402 60.9754 217.593 58.4 201.28 58.4Z" transform="translate(0 400.43) scale(1 -1)" fill="url(#paint1_linear)"/>
<defs>
<linearGradient id="paint0_linear" x2="1" gradientUnits="userSpaceOnUse" gradientTransform="translate(-0.00207533 364.582) scale(124.002 327.836)">
<stop stop-color="#556989" stop-opacity="0.6"/>
<stop offset="1" stop-color="#506380"/>
</linearGradient>
<linearGradient id="paint1_linear" x2="1" gradientUnits="userSpaceOnUse" gradientTransform="translate(13.5003 219.754) scale(223.505 360.493)">
<stop stop-color="#2F3A4C"/>
<stop offset="1" stop-color="#4D5A71"/>
</linearGradient>
</defs>
</svg>
